0,0
10,0
11,0
11,0
11,0
12,0
12,0
12,0
13,0
13,0
14,0
14,0
15,0
15,0
16,0
16,0
17,0
17,0
18,0
18,0
19,0
20,0
20,0
21,0
22,0
22,0
23,0
24,0
25,0
25,0
26,0
27,0
28,0
29,0
30,0
31,0
32,0
33,0
34,0
35,0
36,0
37,0
39,0
40,0
41,0
42,0
44,0
45,0
47,0
48,0
50,0
51,0
53,0
55,0
57,0
58,0
60,0
62,0
64,0
66,0
69,0
71,0
73,0
75,0
78,0
80,0
83,0
86,0
88,0
91,0
94,0
97,0
100,0
104,0
107,0
110,0
114,0
118,0
121,0
125,0
129,0
134,0
138,0
142,0
147,0
152,0
156,0
162,0
167,0
172,0
178,0
183,0
189,0
195,0
202,0
208,0
215,0
222,0
229,0
236,0
244,0
252,0
260,0
268,0
277,0
286,0
295,0
304,0
314,0
324,0
335,0
345,0
357,0
368,0
380,0
392,0
405,0
418,0
431,0
445,0
459,0
474,0
489,0
505,0
521,0
538,0
555,0
573,0
591,0
610,0
630,0
650,0
671,0
693,0
715,0
738,0
762,0
786,0
812,0
838,0
865,0
892,0
921,0
951,0
981,0
1013,0
1045,0
1079,0
1113,0
1149,0
1186,0
1224,0
1263,0
1304,0
1346,0
1389,0
1434,0
1480,0
1527,0
1576,0
1627,0
1679,0
1733,0
1789,0
1846,0
1906,0
1967,0
2030,0
2095,0
2163,0
2232,0
2304,0
2378,0
2454,0
2533,0
2614,0
2698,0
2785,0
2874,0
2966,0
3062,0
3160,0
3262,0
3366,0
3474,0
3586,0
3701,0
3820,0
3943,0
4069,0
4200,0
4335,0
4474,0
4618,0
4766,0
4919,0
5077,0
5240,0
5408,0
5582,0
5761,0
5946,0
6137,0
6334,0
6538,0
6748,0
6964,0
7188,0
7419,0
7657,0
7903,0
8156,0
8418,0
8689,0
8968,0
9256,0
9553,0
9860,0
10176,0
10503,0
10840,0
11188,0
11548,0
11918,0
12301,0
12696,0
13104,0
13524,0
13959,0
14407,0
14870,0
15347,0
15840,0
16348,0
16873,0
17415,0
17974,0
18552,0
19147,0
19762,0
20397,0
21051,0
21727,0
22425,0
23145,0
23888,0
24655,0
25447,0
26264,0
27107,0
27978,0
28876,0
29803,0
30760,0
31748,0
32768,0
