0,0
32767,0
32756,810
32726,1620
32676,2429
32606,3236
32516,4042
32406,4845
32276,5645
32127,6442
31958,7234
31769,8023
31561,8806
31333,9584
31087,10356
30821,11122
30537,11881
30233,12632
29912,13376
29572,14112
29213,14839
28837,15557
28444,16266
28033,16964
27605,17653
27160,18330
26698,18996
26220,19651
25726,20293
25216,20923
24691,21541
24150,22145
23595,22735
23026,23312
22442,23875
21844,24422
21234,24955
20610,25473
19974,25975
19325,26461
18665,26931
17993,27384
17310,27821
16616,28240
15913,28643
15199,29028
14477,29395
13745,29744
13005,30075
12258,30387
11502,30681
10740,30956
9971,31212
9196,31450
8415,31667
7629,31866
6839,32045
6044,32204
5245,32344
4444,32464
3639,32564
2833,32644
2025,32704
1215,32744
405,32764
-405,32764
-1215,32744
-2025,32704
-2833,32644
-3639,32564
-4444,32464
-5245,32344
-6044,32204
-6839,32045
-7629,31866
-8415,31667
-9196,31450
-9971,31212
-10740,30956
-11502,30681
-12258,30387
-13005,30075
-13745,29744
-14477,29395
-15199,29028
-15913,28643
-16616,28240
-17310,27821
-17993,27384
-18665,26931
-19325,26461
-19974,25975
-20610,25473
-21234,24955
-21844,24422
-22442,23875
-23026,23312
-23595,22735
-24150,22145
-24691,21541
-25216,20923
-25726,20293
-26220,19651
-26698,18996
-27160,18330
-27605,17653
-28033,16964
-28444,16266
-28837,15557
-29213,14839
-29572,14112
-29912,13376
-30233,12632
-30537,11881
-30821,11122
-31087,10356
-31333,9584
-31561,8806
-31769,8023
-31958,7234
-32127,6442
-32276,5645
-32406,4845
-32516,4042
-32606,3236
-32676,2429
-32726,1620
-32756,810
-32767,0
-32756,-810
-32726,-1620
-32676,-2429
-32606,-3236
-32516,-4042
-32406,-4845
-32276,-5645
-32127,-6442
-31958,-7234
-31769,-8023
-31561,-8806
-31333,-9584
-31087,-10356
-30821,-11122
-30537,-11881
-30233,-12632
-29912,-13376
-29572,-14112
-29213,-14839
-28837,-15557
-28444,-16266
-28033,-16964
-27605,-17653
-27160,-18330
-26698,-18996
-26220,-19651
-25726,-20293
-25216,-20923
-24691,-21541
-24150,-22145
-23595,-22735
-23026,-23312
-22442,-23875
-21844,-24422
-21234,-24955
-20610,-25473
-19974,-25975
-19325,-26461
-18665,-26931
-17993,-27384
-17310,-27821
-16616,-28240
-15913,-28643
-15199,-29028
-14477,-29395
-13745,-29744
-13005,-30075
-12258,-30387
-11502,-30681
-10740,-30956
-9971,-31212
-9196,-31450
-8415,-31667
-7629,-31866
-6839,-32045
-6044,-32204
-5245,-32344
-4444,-32464
-3639,-32564
-2833,-32644
-2025,-32704
-1215,-32744
-405,-32764
405,-32764
1215,-32744
2025,-32704
2833,-32644
3639,-32564
4444,-32464
5245,-32344
6044,-32204
6839,-32045
7629,-31866
8415,-31667
9196,-31450
9971,-31212
10740,-30956
11502,-30681
12258,-30387
13005,-30075
13745,-29744
14477,-29395
15199,-29028
15913,-28643
16616,-28240
17310,-27821
17993,-27384
18665,-26931
19325,-26461
19974,-25975
20610,-25473
21234,-24955
21844,-24422
22442,-23875
23026,-23312
23595,-22735
24150,-22145
24691,-21541
25216,-20923
25726,-20293
26220,-19651
26698,-18996
27160,-18330
27605,-17653
28033,-16964
28444,-16266
28837,-15557
29213,-14839
29572,-14112
29912,-13376
30233,-12632
30537,-11881
30821,-11122
31087,-10356
31333,-9584
31561,-8806
31769,-8023
31958,-7234
32127,-6442
32276,-5645
32406,-4845
32516,-4042
32606,-3236
32676,-2429
32726,-1620
32756,-810
32767,0
